{
    "dance_still": {
        "frame_time": 3,
        "frame_time_per_frame": [3,40],
        "max_reps": 1,
        "min_reps": 1,
        "movement_speed": 0
    },
    "dance_left_still": {
        "frame_time": 3,
        "max_reps": 3,
        "min_reps": 3,
        "movement_speed": 0
    },
    "output": {
    	"fps": 30,
    	"background_color": "#ff0000",
    	"background": "cycle_rainbow",
    	"top_offset": 0,
    	"sequence": ["dance_left_still", "dance_right_still", "dance_left_still", "dance_right_still", "dance_left_still", "dance_right_still", "dance_still"]
    }
}